Vitesse des chars;7.0
Vitesse de rotation des chars;1500.0
Points de vie des chars;200.0
Temps du mouvement des blocs animes;0.8
Canon - Vitesse balle;14.0
Canon - Temps de recharge;1.2
Mitraillette - Vitesse balle;18.0
Mitraillette - Temps de recharge; 0.4
Grenade - Vitesse initiale balle; 16.0
Grenade - Temps de recharge; 0.8
Shotgun - Vitesse balle; 13.0
Shotgun - Temps de recharge; 1.8
Shotgun - Ouverture du fusil; 0.4
Piege - Vitesse balle; 1.0
Piege - Temps de recharge; 0.8
Missile guide - Vitesse guide balle; 30.0
Missile guide - Temps de recharge; 3.0
Spring - Vitesse initiale du saut; 10.0
Spring - Temps de recharge; 0.5
Grosseur de l'explosion des balles; 8.0
Message accueil;Appuyer sur F1 pour l'aide
Message accueil - duree;3
Message compte a rebour;3
Message signal début partie;Tankem!
Message fin de partie;Joueur $ a gagne!